SECTOR,PERIODO,ENERGIA ENTREGADA GWh,PERDIDA GWh,,,,,,
Distrito Sur,01/01/2017,122.3,4.38,,,,,,
Distrito Norte,01/01/2017,50.4,10.26,,,,,,
Sector Noroeste,01/01/2017,58.98,21.6,,,,,,
Sector Villa Altagracia,01/01/2017,21.56,5.33,,,,,,
Sector San Cristobal,01/01/2017,48.54,21.63,,,,,,
Sector Bani,01/01/2017,20.02,8.73,,,,,,
Sector Azua,01/01/2017,14.16,5.27,,,,,,
Sector San Juan,01/01/2017,12.67,2.8,,,,,,
Sector Barahona,01/01/2017,17.31,7.68,,,,,,
Sector Neyba,01/01/2017,7.25,4.25,,,,,,
Distrito Sur,01/02/2017,121.75,9.77,,,,,,
Distrito Norte,01/02/2017,45.69,7.43,,,,,,
Sector Noroeste,01/02/2017,55.03,18.78,,,,,,
Sector Villa Altagracia,01/02/2017,21.11,5.25,,,,,,
Sector San Cristobal,01/02/2017,44.67,18.7,,,,,,
Sector Bani,01/02/2017,18.2,7.67,,,,,,
Sector Azua,01/02/2017,13.91,5.93,,,,,,
Sector San Juan,01/02/2017,11.66,2.26,,,,,,
Sector Barahona,01/02/2017,15.57,6.06,,,,,,
Sector Neyba,01/02/2017,6.77,3.82,,,,,,
Distrito Sur,01/03/2017,139.21,24.09,,,,,,
Distrito Norte,01/03/2017,51.5,12.84,,,,,,
Sector Noroeste,01/03/2017,61.65,18.88,,,,,,
Sector Villa Altagracia,01/03/2017,23.29,7.13,,,,,,
Sector San Cristobal,01/03/2017,49.91,23.38,,,,,,
Sector Bani,01/03/2017,20.23,9.3,,,,,,
Sector Azua,01/03/2017,16.13,7.44,,,,,,
Sector San Juan,01/03/2017,12.85,3.11,,,,,,
Sector Barahona,01/03/2017,16.7,7.19,,,,,,
Sector Neyba,01/03/2017,7.45,4.41,,,,,,
Distrito Sur,01/04/2017,131.85,9.62,,,,,,
Distrito Norte,01/04/2017,50.05,8.75,,,,,,
Sector Noroeste,01/04/2017,59.78,16.83,,,,,,
Sector Villa Altagracia,01/04/2017,23.18,6.39,,,,,,
Sector San Cristobal,01/04/2017,48.81,20.71,,,,,,
Sector Bani,01/04/2017,20.16,9.15,,,,,,
Sector Azua,01/04/2017,14.66,5.12,,,,,,
Sector San Juan,01/04/2017,12.71,3.08,,,,,,
Sector Barahona,01/04/2017,16.7,7.75,,,,,,
Sector Neyba,01/04/2017,7.5,4.39,,,,,,
Distrito Sur,01/05/2017,150.95,30.63,,,,,,
Distrito Norte,01/05/2017,56.22,16.11,,,,,,
Sector Noroeste,01/05/2017,66.55,29.08,,,,,,
Sector Villa Altagracia,01/05/2017,24.88,3.65,,,,,,
Sector San Cristobal,01/05/2017,53.86,27.05,,,,,,
Sector Bani,01/05/2017,20.79,9.88,,,,,,
Sector Azua,01/05/2017,15.35,7.27,,,,,,
Sector San Juan,01/05/2017,13.34,3.39,,,,,,
Sector Barahona,01/05/2017,17.38,8.39,,,,,,
Sector Neyba,01/05/2017,7.22,4.02,,,,,,
Distrito Sur,01/06/2017,148.67,13.33,,,,,,
Distrito Norte,01/06/2017,59.69,13.83,,,,,,
Sector Noroeste,01/06/2017,67.18,24.51,,,,,,
Sector Villa Altagracia,01/06/2017,24.41,6.4,,,,,,
Sector San Cristobal,01/06/2017,57.4,26.88,,,,,,
Sector Bani,01/06/2017,21.53,10.08,,,,,,
Sector Azua,01/06/2017,15.7,6.99,,,,,,
Sector San Juan,01/06/2017,13.34,3,,,,,,
Sector Barahona,01/06/2017,18.33,8.88,,,,,,
Sector Neyba,01/06/2017,7.84,4.86,,,,,,
Distrito Sur,01/07/2017,154.7,18.56,,,,,,
Distrito Norte,01/07/2017,62.59,17.26,,,,,,
Sector Noroeste,01/07/2017,70.38,27.23,,,,,,
Sector Villa Altagracia,01/07/2017,25.28,7.15,,,,,,
Sector San Cristobal,01/07/2017,60.32,26.38,,,,,,
Sector Bani,01/07/2017,23.1,11.09,,,,,,
Sector Azua,01/07/2017,16.49,7.62,,,,,,
Sector San Juan,01/07/2017,13.79,3.42,,,,,,
Sector Barahona,01/07/2017,19.3,9.7,,,,,,
Sector Neyba,01/07/2017,8.72,5.48,,,,,,
Distrito Sur,01/08/2017,158.06,16.4,,,,,,
Distrito Norte,01/08/2017,65.8,17.9,,,,,,
Sector Noroeste,01/08/2017,74.31,30.11,,,,,,
Sector Villa Altagracia,01/08/2017,26.13,8.17,,,,,,
Sector San Cristobal,01/08/2017,63.21,28.01,,,,,,
Sector Bani,01/08/2017,23.98,11.6,,,,,,
Sector Azua,01/08/2017,17.2,8.02,,,,,,
Sector San Juan,01/08/2017,14.1,3.4,,,,,,
Sector Barahona,01/08/2017,20.19,10.4,,,,,,
Sector Neyba,01/08/2017,9.17,5.72,,,,,,
Distrito Sur,01/09/2017,149.21,10.64,,,,,,
Distrito Norte,01/09/2017,60.62,12.08,,,,,,
Sector Noroeste,01/09/2017,69.36,25.86,,,,,,
Sector Villa Altagracia,01/09/2017,24.67,6.24,,,,,,
Sector San Cristobal,01/09/2017,59.7,22.59,,,,,,
Sector Bani,01/09/2017,21.86,9.23,,,,,,
Sector Azua,01/09/2017,14.96,5.57,,,,,,
Sector San Juan,01/09/2017,13.36,2.68,,,,,,
Sector Barahona,01/09/2017,19.13,8.97,,,,,,
Sector Neyba,01/09/2017,8.48,4.88,,,,,,
Distrito Sur,01/10/2017,153.37,15.75,,,,,,
Distrito Norte,01/10/2017,60.89,14.83,,,,,,
Sector Noroeste,01/10/2017,70.68,27.01,,,,,,
Sector Villa Altagracia,01/10/2017,24.94,6.49,,,,,,
Sector San Cristobal,01/10/2017,61.18,24.75,,,,,,
Sector Bani,01/10/2017,21.82,10.06,,,,,,
Sector Azua,01/10/2017,15.86,7.52,,,,,,
Sector San Juan,01/10/2017,13.62,3.15,,,,,,
Sector Barahona,01/10/2017,18.83,8.94,,,,,,
Sector Neyba,01/10/2017,8.7,4.48,,,,,,
Distrito Sur,01/11/2017,137.41,1.16,,,,,,
Distrito Norte,01/11/2017,55.68,10.65,,,,,,
Sector Noroeste,01/11/2017,64.71,21.15,,,,,,
Sector Villa Altagracia,01/11/2017,23.38,4.85,,,,,,
Sector San Cristobal,01/11/2017,57.47,19.56,,,,,,
Sector Bani,01/11/2017,20.17,8.54,,,,,,
Sector Azua,01/11/2017,14.11,5.83,,,,,,
Sector San Juan,01/11/2017,12.76,2.47,,,,,,
Sector Barahona,01/11/2017,16.76,7.3,,,,,,
Sector Neyba,01/11/2017,7.38,4.05,,,,,,
Distrito Sur,01/12/2017,130.85,2.14,,,,,,
Distrito Norte,01/12/2017,54.05,8.33,,,,,,
Sector Noroeste,01/12/2017,65.28,24.63,,,,,,
Sector Villa Altagracia,01/12/2017,23.73,5.59,,,,,,
Sector San Cristobal,01/12/2017,57.34,18.45,,,,,,
Sector Bani,01/12/2017,22.06,11,,,,,,
Sector Azua,01/12/2017,16.27,8.39,,,,,,
Sector San Juan,01/12/2017,13.51,3.68,,,,,,
Sector Barahona,01/12/2017,18.49,7.98,,,,,,
Sector Neyba,01/12/2017,8.38,5.29,,,,,,
Distrito Sur,01/01/2018,125.5,10.29,,,,,,
Distrito Norte,01/01/2018,51.5,11.72,,,,,,
Sector Noroeste,01/01/2018,61.24,22.89,,,,,,
Sector Villa Altagracia,01/01/2018,23.18,5.74,,,,,,
Sector San Cristobal,01/01/2018,55.52,20.96,,,,,,
Sector Bani,01/01/2018,20.69,9.12,,,,,,
Sector Azua,01/01/2018,15.2,6.06,,,,,,
Sector San Juan,01/01/2018,13.13,2.83,,,,,,
Sector Barahona,01/01/2018,17.62,8,,,,,,
Sector Neyba,01/01/2018,8.02,4.42,,,,,,
Distrito Sur,01/02/2018,109.17,-3.57,,,,,,
Distrito Norte,01/02/2018,44.41,6.38,,,,,,
Sector Noroeste,01/02/2018,52.88,14.7,,,,,,
Sector Villa Altagracia,01/02/2018,20.26,2.8,,,,,,
Sector San Cristobal,01/02/2018,48.48,14.94,,,,,,
Sector Bani,01/02/2018,18.35,7.4,,,,,,
Sector Azua,01/02/2018,15.2,6.66,,,,,,
Sector San Juan,01/02/2018,11.55,1.54,,,,,,
Sector Barahona,01/02/2018,15.65,7.62,,,,,,
Sector Neyba,01/02/2018,7.53,4.09,,,,,,
Distrito Sur,01/03/2018,129.46,27.19,,,,,,
Distrito Norte,01/03/2018,52.94,15.6,,,,,,
Sector Noroeste,01/03/2018,61.82,26.75,,,,,,
Sector Villa Altagracia,01/03/2018,24.37,8.17,,,,,,
Sector San Cristobal,01/03/2018,56.64,24.12,,,,,,
Sector Bani,01/03/2018,21.67,11.1,,,,,,
Sector Azua,01/03/2018,17.31,7.58,,,,,,
Sector San Juan,01/03/2018,13.3,4.02,,,,,,
Sector Barahona,01/03/2018,18.43,9.58,,,,,,
Sector Neyba,01/03/2018,8.45,5.11,,,,,,
Distrito Sur,01/04/2018,135.46,16.47,,,,,,
Distrito Norte,01/04/2018,56.31,8.15,,,,,,
Sector Noroeste,01/04/2018,63.69,19.01,,,,,,
Sector Villa Altagracia,01/04/2018,25.01,11.4,,,,,,
Sector San Cristobal,01/04/2018,56.66,18.9,,,,,,
Sector Bani,01/04/2018,21.89,9.79,,,,,,
Sector Azua,01/04/2018,16.52,5.6,,,,,,
Sector San Juan,01/04/2018,13.2,2.81,,,,,,
Sector Barahona,01/04/2018,18.35,8.55,,,,,,
Sector Neyba,01/04/2018,8.56,4.75,,,,,,
Distrito Sur,01/05/2018,144.16,17.16,,,,,,
Distrito Norte,01/05/2018,59.18,14.76,,,,,,
Sector Noroeste,01/05/2018,67.15,19.94,,,,,,
Sector Villa Altagracia,01/05/2018,25.41,10.98,,,,,,
Sector San Cristobal,01/05/2018,56.98,18.26,,,,,,
Sector Bani,01/05/2018,21.56,9.52,,,,,,
Sector Azua,01/05/2018,16.09,6.07,,,,,,
Sector San Juan,01/05/2018,13.9,3.01,,,,,,
Sector Barahona,01/05/2018,18.13,7.85,,,,,,
Sector Neyba,01/05/2018,8.48,4.54,,,,,,
Distrito Sur,01/06/2018,146.79,15.06,,,,,,
Distrito Norte,01/06/2018,61.48,10.72,,,,,,
Sector Noroeste,01/06/2018,68.88,18.9,,,,,,
Sector Villa Altagracia,01/06/2018,25.39,10.73,,,,,,
Sector San Cristobal,01/06/2018,58.91,20.23,,,,,,
Sector Bani,01/06/2018,22.43,9.94,,,,,,
Sector Azua,01/06/2018,16.14,6.5,,,,,,
Sector San Juan,01/06/2018,13.98,2.83,,,,,,
Sector Barahona,01/06/2018,18.54,8.22,,,,,,
Sector Neyba,01/06/2018,8.66,4.7,,,,,,
Distrito Sur,01/07/2018,151.54,14.99,,,,,,
Distrito Norte,01/07/2018,63.37,10.69,,,,,,
Sector Noroeste,01/07/2018,73.2,21.66,,,,,,
Sector Villa Altagracia,01/07/2018,26.15,10.87,,,,,,
Sector San Cristobal,01/07/2018,61.38,20.65,,,,,,
Sector Bani,01/07/2018,24.14,11.16,,,,,,
Sector Azua,01/07/2018,17.22,7.32,,,,,,
Sector San Juan,01/07/2018,14.55,3.15,,,,,,
Sector Barahona,01/07/2018,20.25,10,,,,,,
Sector Neyba,01/07/2018,9.01,4.82,,,,,,
Distrito Sur,01/08/2018,149.5,11.43,,,,,,
Distrito Norte,01/08/2018,62.11,8.55,,,,,,
Sector Noroeste,01/08/2018,73.6,21.67,,,,,,
Sector Villa Altagracia,01/08/2018,25.93,10.25,,,,,,
Sector San Cristobal,01/08/2018,62.14,20.67,,,,,,
Sector Bani,01/08/2018,24.83,11.25,,,,,,
Sector Azua,01/08/2018,17.67,7.61,,,,,,
Sector San Juan,01/08/2018,14.51,3.03,,,,,,
Sector Barahona,01/08/2018,20.11,9.13,,,,,,
Sector Neyba,01/08/2018,9.07,4.86,,,,,,
Distrito Sur,01/09/2018,139.24,6.1,,,,,,
Distrito Norte,01/09/2018,57.3,5.13,,,,,,
Sector Noroeste,01/09/2018,67.63,16.1,,,,,,
Sector Villa Altagracia,01/09/2018,23.74,8.12,,,,,,
Sector San Cristobal,01/09/2018,57.68,16.81,,,,,,
Sector Bani,01/09/2018,23.17,9.51,,,,,,
Sector Azua,01/09/2018,16.05,5.59,,,,,,
Sector San Juan,01/09/2018,13.5,2.28,,,,,,
Sector Barahona,01/09/2018,19.02,8.23,,,,,,
Sector Neyba,01/09/2018,8.49,4.29,,,,,,
Distrito Sur,01/10/2018,143.21,12.54,,,,,,
Distrito Norte,01/10/2018,58.52,8.53,,,,,,
Sector Noroeste,01/10/2018,70.28,21.56,,,,,,
Sector Villa Altagracia,01/10/2018,24.31,9.11,,,,,,
Sector San Cristobal,01/10/2018,60.40,20.84,,,,,,
Sector Bani,01/10/2018,25.78,11.97,,,,,,
Sector Azua,01/10/2018,16.48,6.85,,,,,,
Sector San Juan,01/10/2018,14.03,3.15,,,,,,
Sector Barahona,01/10/2018,18.72,8.06,,,,,,
Sector Neyba,01/10/2018,8.64,4.65,,,,,,
Distrito Sur,01/11/2018,137.47,6.64,,,,,,
Distrito Norte,01/11/2018,56.13,5.04,,,,,,
Sector Noroeste,01/11/2018,67.94,17.52,,,,,,
Sector Villa Altagracia,01/11/2018,23.05,7.09,,,,,,
Sector San Cristobal,01/11/2018,58.10,16.53,,,,,,
Sector Bani,01/11/2018,23.97,7.66,,,,,,
Sector Azua,01/11/2018,16.18,5.96,,,,,,
Sector San Juan,01/11/2018,13.38,2.47,,,,,,
Sector Barahona,01/11/2018,18.78,8.42,,,,,,
Sector Neyba,01/11/2018,8.15,4.18,,,,,,
