SECTOR,FECHA,COBROS (RD$ MM)
Distrito Sur,01/01/2017,971.6151289
Distrito Norte,01/01/2017,288.0067358
Sector Noroeste,01/01/2017,269.0830046
Sector Villa Altagracia,01/01/2017,102.9576597
Sector San Cristobal,01/01/2017,161.3075325
Sector Bani,01/01/2017,72.21250093
Sector Azua,01/01/2017,40.56008716
Sector San Juan,01/01/2017,56.39511335
Sector Barahona,01/01/2017,46.81316691
Sector Neyba,01/01/2017,14.40182264
Distrito Sur,01/02/2017,1034.941833
Distrito Norte,01/02/2017,297.9572327
Sector Noroeste,01/02/2017,257.8314846
Sector Villa Altagracia,01/02/2017,115.3187619
Sector San Cristobal,01/02/2017,179.073873
Sector Bani,01/02/2017,76.15092254
Sector Azua,01/02/2017,54.09962842
Sector San Juan,01/02/2017,52.6099999
Sector Barahona,01/02/2017,62.59611046
Sector Neyba,01/02/2017,17.67305976
Distrito Sur,01/03/2017,1099.101522
Distrito Norte,01/03/2017,322.3434878
Sector Noroeste,01/03/2017,339.3471731
Sector Villa Altagracia,01/03/2017,120.9046894
Sector San Cristobal,01/03/2017,213.4225642
Sector Bani,01/03/2017,89.7239284
Sector Azua,01/03/2017,67.22470708
Sector San Juan,01/03/2017,62.17040233
Sector Barahona,01/03/2017,61.91968514
Sector Neyba,01/03/2017,20.38901791
Distrito Sur,01/04/2017,1033.863991
Distrito Norte,01/04/2017,308.5506918
Sector Noroeste,01/04/2017,306.9274993
Sector Villa Altagracia,01/04/2017,115.9062866
Sector San Cristobal,01/04/2017,195.0728709
Sector Bani,01/04/2017,77.37344475
Sector Azua,01/04/2017,65.41668734
Sector San Juan,01/04/2017,59.96854679
Sector Barahona,01/04/2017,60.16965929
Sector Neyba,01/04/2017,19.00459197
Distrito Sur,01/05/2017,1121.528792
Distrito Norte,01/05/2017,321.5971514
Sector Noroeste,01/05/2017,294.9343974
Sector Villa Altagracia,01/05/2017,154.0897561
Sector San Cristobal,01/05/2017,201.9552897
Sector Bani,01/05/2017,83.11684478
Sector Azua,01/05/2017,58.35948399
Sector San Juan,01/05/2017,61.64178502
Sector Barahona,01/05/2017,63.90120413
Sector Neyba,01/05/2017,22.56988325
Distrito Sur,01/06/2017,1127.298587
Distrito Norte,01/06/2017,345.0102252
Sector Noroeste,01/06/2017,329.608801
Sector Villa Altagracia,01/06/2017,120.8154934
Sector San Cristobal,01/06/2017,208.2453531
Sector Bani,01/06/2017,85.05998726
Sector Azua,01/06/2017,60.73442171
Sector San Juan,01/06/2017,62.62878718
Sector Barahona,01/06/2017,63.92451888
Sector Neyba,01/06/2017,21.82668525
Distrito Sur,01/07/2017,1239.018031
Distrito Norte,01/07/2017,363.8035833
Sector Noroeste,01/07/2017,310.6668137
Sector Villa Altagracia,01/07/2017,135.0310655
Sector San Cristobal,01/07/2017,242.9547839
Sector Bani,01/07/2017,83.8511568
Sector Azua,01/07/2017,59.95192347
Sector San Juan,01/07/2017,65.39907504
Sector Barahona,01/07/2017,60.37532118
Sector Neyba,01/07/2017,22.63583837
Distrito Sur,01/08/2017,1276.738053
Distrito Norte,01/08/2017,378.9130429
Sector Noroeste,01/08/2017,343.6994784
Sector Villa Altagracia,01/08/2017,128.8426026
Sector San Cristobal,01/08/2017,241.0093894
Sector Bani,01/08/2017,96.3223094
Sector Azua,01/08/2017,63.40922513
Sector San Juan,01/08/2017,68.67057468
Sector Barahona,01/08/2017,59.87856369
Sector Neyba,01/08/2017,21.94398808
Distrito Sur,01/09/2017,1255.264245
Distrito Norte,01/09/2017,370.6739866
Sector Noroeste,01/09/2017,320.944483
Sector Villa Altagracia,01/09/2017,127.118776
Sector San Cristobal,01/09/2017,293.0491077
Sector Bani,01/09/2017,95.01543653
Sector Azua,01/09/2017,68.61541583
Sector San Juan,01/09/2017,73.44933526
Sector Barahona,01/09/2017,64.29115375
Sector Neyba,01/09/2017,27.29698844
Distrito Sur,01/10/2017,1268.116554
Distrito Norte,01/10/2017,387.6208425
Sector Noroeste,01/10/2017,335.533479
Sector Villa Altagracia,01/10/2017,129.1981808
Sector San Cristobal,01/10/2017,318.9297058
Sector Bani,01/10/2017,95.33099484
Sector Azua,01/10/2017,69.98503965
Sector San Juan,01/10/2017,74.556848
Sector Barahona,01/10/2017,64.63371143
Sector Neyba,01/10/2017,28.75342798
Distrito Sur,01/11/2017,1214.011446
Distrito Norte,01/11/2017,380.1178679
Sector Noroeste,01/11/2017,322.5945358
Sector Villa Altagracia,01/11/2017,128.5536996
Sector San Cristobal,01/11/2017,262.3154512
Sector Bani,01/11/2017,89.26450497
Sector Azua,01/11/2017,68.56445952
Sector San Juan,01/11/2017,67.58008524
Sector Barahona,01/11/2017,63.16720199
Sector Neyba,01/11/2017,24.57393088
Distrito Sur,01/12/2017,1229.153275
Distrito Norte,01/12/2017,357.4025051
Sector Noroeste,01/12/2017,320.4775282
Sector Villa Altagracia,01/12/2017,116.3019096
Sector San Cristobal,01/12/2017,246.5035233
Sector Bani,01/12/2017,88.33628225
Sector Azua,01/12/2017,56.08219296
Sector San Juan,01/12/2017,66.11819266
Sector Barahona,01/12/2017,58.02329064
Sector Neyba,01/12/2017,28.50973749
Distrito Sur,01/01/2018,998.8921539
Distrito Norte,01/01/2018,307.3922859
Sector Noroeste,01/01/2018,278.6293121
Sector Villa Altagracia,01/01/2018,109.1310565
Sector San Cristobal,01/01/2018,208.1905592
Sector Bani,01/01/2018,78.6867955
Sector Azua,01/01/2018,40.95074862
Sector San Juan,01/01/2018,51.98524665
Sector Barahona,01/01/2018,39.7764273
Sector Neyba,01/01/2018,13.38431464
Distrito Sur,01/02/2018,1002.068481
Distrito Norte,01/02/2018,309.5352129
Sector Noroeste,01/02/2018,279.9947996
Sector Villa Altagracia,01/02/2018,117.1564195
Sector San Cristobal,01/02/2018,244.4967034
Sector Bani,01/02/2018,82.80199694
Sector Azua,01/02/2018,57.68468511
Sector San Juan,01/02/2018,62.44289417
Sector Barahona,01/02/2018,61.99127154
Sector Neyba,01/02/2018,22.3555797
Distrito Sur,01/03/2018,1089.214199
Distrito Norte,01/03/2018,321.6399275
Sector Noroeste,01/03/2018,311.7645391
Sector Villa Altagracia,01/03/2018,137.1962609
Sector San Cristobal,01/03/2018,269.6975351
Sector Bani,01/03/2018,88.01664413
Sector Azua,01/03/2018,73.3651831
Sector San Juan,01/03/2018,65.84594599
Sector Barahona,01/03/2018,62.23411547
Sector Neyba,01/03/2018,25.89009788
Distrito Sur,01/04/2018,938.1087393
Distrito Norte,01/04/2018,336.5952459
Sector Noroeste,01/04/2018,282.9903068
Sector Villa Altagracia,01/04/2018,107.3791926
Sector San Cristobal,01/04/2018,246.1157912
Sector Bani,01/04/2018,79.02721658
Sector Azua,01/04/2018,68.36016413
Sector San Juan,01/04/2018,58.10933856
Sector Barahona,01/04/2018,58.62394772
Sector Neyba,01/04/2018,23.94693243
Distrito Sur,01/05/2018,1150.073335
Distrito Norte,01/05/2018,375.8041819
Sector Noroeste,01/05/2018,338.2554392
Sector Villa Altagracia,01/05/2018,101.6645865
Sector San Cristobal,01/05/2018,277.1852112
Sector Bani,01/05/2018,95.26967552
Sector Azua,01/05/2018,74.54685548
Sector San Juan,01/05/2018,69.13327244
Sector Barahona,01/05/2018,66.48575019
Sector Neyba,01/05/2018,27.14950037
Distrito Sur,01/06/2018,1225.464622
Distrito Norte,01/06/2018,394.8632168
Sector Noroeste,01/06/2018,383.5760423
Sector Villa Altagracia,01/06/2018,111.2770363
Sector San Cristobal,01/06/2018,278.8184035
Sector Bani,01/06/2018,95.98040903
Sector Azua,01/06/2018,75.61678165
Sector San Juan,01/06/2018,70.54549856
Sector Barahona,01/06/2018,68.54074122
Sector Neyba,01/06/2018,28.27884162
Distrito Sur,01/07/2018,1303.643842
Distrito Norte,01/07/2018,423.0820482
Sector Noroeste,01/07/2018,373.1218387
Sector Villa Altagracia,01/07/2018,110.3433998
Sector San Cristobal,01/07/2018,296.1697717
Sector Bani,01/07/2018,102.1687462
Sector Azua,01/07/2018,69.59517262
Sector San Juan,01/07/2018,73.60652668
Sector Barahona,01/07/2018,70.37911526
Sector Neyba,01/07/2018,28.35893558
Distrito Sur,01/08/2018,1290.299717
Distrito Norte,01/08/2018,443.4336918
Sector Noroeste,01/08/2018,414.7977172
Sector Villa Altagracia,01/08/2018,110.4975931
Sector San Cristobal,01/08/2018,307.2861395
Sector Bani,01/08/2018,104.1648751
Sector Azua,01/08/2018,72.7365226
Sector San Juan,01/08/2018,76.46432962
Sector Barahona,01/08/2018,74.24596364
Sector Neyba,01/08/2018,29.7036241
Distrito Sur,01/09/2018,1220.918147
Distrito Norte,01/09/2018,420.1253472
Sector Noroeste,01/09/2018,381.2617674
Sector Villa Altagracia,01/09/2018,105.7514351
Sector San Cristobal,01/09/2018,290.1051486
Sector Bani,01/09/2018,101.5666881
Sector Azua,01/09/2018,73.88187883
Sector San Juan,01/09/2018,73.05180345
Sector Barahona,01/09/2018,65.68772788
Sector Neyba,01/09/2018,33.084099
Distrito Sur,01/10/2018,1302.413374
Distrito Norte,01/10/2018,433.3459927
Sector Noroeste,01/10/2018,459.1389818
Sector Villa Altagracia,01/10/2018,118.4391107
Sector San Cristobal,01/10/2018,306.3941244
Sector Bani,01/10/2018,109.5154175
Sector Azua,01/10/2018,77.41126873
Sector San Juan,01/10/2018,76.99906121
Sector Barahona,01/10/2018,74.16792264
Sector Neyba,01/10/2018,30.27665383
Distrito Sur,01/11/2018,1155.764218
Distrito Norte,01/11/2018,407.5017292
Sector Noroeste,01/11/2018,374.822393
Sector Villa Altagracia,01/11/2018,109.323066
Sector San Cristobal,01/11/2018,298.3254318
Sector Bani,01/11/2018,96.24306233
Sector Azua,01/11/2018,69.56042407
Sector San Juan,01/11/2018,68.89043797
Sector Barahona,01/11/2018,68.40123129
Sector Neyba,01/11/2018,27.10099017
