SECTOR,PERIODO,CANTIDAD DE CONTRATOS TELEMEDIDOS  FACTURADOS,,
Distrito Sur,01/01/2017,106944,,
Distrito Norte,01/01/2017,36539,,
Sector Noroeste,01/01/2017,28187,,
Sector Villa Altagracia,01/01/2017,8624,,
Sector San Cristobal,01/01/2017,11740,,
Sector Bani,01/01/2017,4097,,
Sector Azua,01/01/2017,2015,,
Sector San Juan,01/01/2017,2087,,
Sector Barahona,01/01/2017,1779,,
Sector Neyba,01/01/2017,236,,
Distrito Sur,01/02/2017,107565,,
Distrito Norte,01/02/2017,36891,,
Sector Noroeste,01/02/2017,29018,,
Sector Villa Altagracia,01/02/2017,8627,,
Sector San Cristobal,01/02/2017,13491,,
Sector Bani,01/02/2017,4346,,
Sector Azua,01/02/2017,2354,,
Sector San Juan,01/02/2017,2366,,
Sector Barahona,01/02/2017,1807,,
Sector Neyba,01/02/2017,252,,
Distrito Sur,01/03/2017,108185,,
Distrito Norte,01/03/2017,37165,,
Sector Noroeste,01/03/2017,30622,,
Sector Villa Altagracia,01/03/2017,9353,,
Sector San Cristobal,01/03/2017,16340,,
Sector Bani,01/03/2017,4655,,
Sector Azua,01/03/2017,2873,,
Sector San Juan,01/03/2017,2542,,
Sector Barahona,01/03/2017,2067,,
Sector Neyba,01/03/2017,274,,
Distrito Sur,01/04/2017,109060,,
Distrito Norte,01/04/2017,37469,,
Sector Noroeste,01/04/2017,30672,,
Sector Villa Altagracia,01/04/2017,9682,,
Sector San Cristobal,01/04/2017,18387,,
Sector Bani,01/04/2017,4885,,
Sector Azua,01/04/2017,2977,,
Sector San Juan,01/04/2017,2673,,
Sector Barahona,01/04/2017,2113,,
Sector Neyba,01/04/2017,296,,
Distrito Sur,01/05/2017,110002,,
Distrito Norte,01/05/2017,37596,,
Sector Noroeste,01/05/2017,31696,,
Sector Villa Altagracia,01/05/2017,9908,,
Sector San Cristobal,01/05/2017,20413,,
Sector Bani,01/05/2017,5196,,
Sector Azua,01/05/2017,3127,,
Sector San Juan,01/05/2017,2819,,
Sector Barahona,01/05/2017,2234,,
Sector Neyba,01/05/2017,361,,
Distrito Sur,01/06/2017,111163,,
Distrito Norte,01/06/2017,38197,,
Sector Noroeste,01/06/2017,33092,,
Sector Villa Altagracia,01/06/2017,10607,,
Sector San Cristobal,01/06/2017,21637,,
Sector Bani,01/06/2017,5531,,
Sector Azua,01/06/2017,3364,,
Sector San Juan,01/06/2017,3145,,
Sector Barahona,01/06/2017,2558,,
Sector Neyba,01/06/2017,401,,
Distrito Sur,01/07/2017,112385,,
Distrito Norte,01/07/2017,38529,,
Sector Noroeste,01/07/2017,35302,,
Sector Villa Altagracia,01/07/2017,11086,,
Sector San Cristobal,01/07/2017,24815,,
Sector Bani,01/07/2017,5930,,
Sector Azua,01/07/2017,3539,,
Sector San Juan,01/07/2017,3369,,
Sector Barahona,01/07/2017,2641,,
Sector Neyba,01/07/2017,440,,
Distrito Sur,01/08/2017,113915,,
Distrito Norte,01/08/2017,39076,,
Sector Noroeste,01/08/2017,37323,,
Sector Villa Altagracia,01/08/2017,11919,,
Sector San Cristobal,01/08/2017,29575,,
Sector Bani,01/08/2017,6230,,
Sector Azua,01/08/2017,3676,,
Sector San Juan,01/08/2017,3525,,
Sector Barahona,01/08/2017,2864,,
Sector Neyba,01/08/2017,562,,
Distrito Sur,01/09/2017,114395,,
Distrito Norte,01/09/2017,39427,,
Sector Noroeste,01/09/2017,38852,,
Sector Villa Altagracia,01/09/2017,13134,,
Sector San Cristobal,01/09/2017,33633,,
Sector Bani,01/09/2017,6550,,
Sector Azua,01/09/2017,3736,,
Sector San Juan,01/09/2017,3647,,
Sector Barahona,01/09/2017,2947,,
Sector Neyba,01/09/2017,566,,
Distrito Sur,01/10/2017,116078,,
Distrito Norte,01/10/2017,40118,,
Sector Noroeste,01/10/2017,40839,,
Sector Villa Altagracia,01/10/2017,14701,,
Sector San Cristobal,01/10/2017,37499,,
Sector Bani,01/10/2017,6922,,
Sector Azua,01/10/2017,3958,,
Sector San Juan,01/10/2017,3897,,
Sector Barahona,01/10/2017,3307,,
Sector Neyba,01/10/2017,624,,
Distrito Sur,01/11/2017,119261,,
Distrito Norte,01/11/2017,41125,,
Sector Noroeste,01/11/2017,55118,,
Sector Villa Altagracia,01/11/2017,17166,,
Sector San Cristobal,01/11/2017,41394,,
Sector Bani,01/11/2017,7505,,
Sector Azua,01/11/2017,4193,,
Sector San Juan,01/11/2017,4170,,
Sector Barahona,01/11/2017,3537,,
Sector Neyba,01/11/2017,664,,
Distrito Sur,01/12/2017,120782,,
Distrito Norte,01/12/2017,41949,,
Sector Noroeste,01/12/2017,62854,,
Sector Villa Altagracia,01/12/2017,19488,,
Sector San Cristobal,01/12/2017,46720,,
Sector Bani,01/12/2017,7844,,
Sector Azua,01/12/2017,4286,,
Sector San Juan,01/12/2017,4303,,
Sector Barahona,01/12/2017,3659,,
Sector Neyba,01/12/2017,721,,
Distrito Sur,01/01/2018,121461,,
Distrito Norte,01/01/2018,54598,,
Sector Noroeste,01/01/2018,57969,,
Sector Villa Altagracia,01/01/2018,20588,,
Sector San Cristobal,01/01/2018,50601,,
Sector Bani,01/01/2018,8156,,
Sector Azua,01/01/2018,4421,,
Sector San Juan,01/01/2018,4482,,
Sector Barahona,01/01/2018,3638,,
Sector Neyba,01/01/2018,741,,
Distrito Sur,01/02/2018,122241,,
Distrito Norte,01/02/2018,59444,,
Sector Noroeste,01/02/2018,59857,,
Sector Villa Altagracia,01/02/2018,21816,,
Sector San Cristobal,01/02/2018,55648,,
Sector Bani,01/02/2018,8437,,
Sector Azua,01/02/2018,4446,,
Sector San Juan,01/02/2018,4574,,
Sector Barahona,01/02/2018,3729,,
Sector Neyba,01/02/2018,826,,
Distrito Sur,01/03/2018,123535,,
Distrito Norte,01/03/2018,63242,,
Sector Noroeste,01/03/2018,62907,,
Sector Villa Altagracia,01/03/2018,22988,,
Sector San Cristobal,01/03/2018,59717,,
Sector Bani,01/03/2018,8630,,
Sector Azua,01/03/2018,4514,,
Sector San Juan,01/03/2018,4594,,
Sector Barahona,01/03/2018,3796,,
Sector Neyba,01/03/2018,917,,
Distrito Sur,01/04/2018,123955,,
Distrito Norte,01/04/2018,74891,,
Sector Noroeste,01/04/2018,73400,,
Sector Villa Altagracia,01/04/2018,18312,,
Sector San Cristobal,01/04/2018,65268,,
Sector Bani,01/04/2018,8994,,
Sector Azua,01/04/2018,4695,,
Sector San Juan,01/04/2018,4800,,
Sector Barahona,01/04/2018,4037,,
Sector Neyba,01/04/2018,1035,,
Distrito Sur,01/05/2018,128066,,
Distrito Norte,01/05/2018,81395,,
Sector Noroeste,01/05/2018,79986,,
Sector Villa Altagracia,01/05/2018,19449,,
Sector San Cristobal,01/05/2018,70085,,
Sector Bani,01/05/2018,9058,,
Sector Azua,01/05/2018,4774,,
Sector San Juan,01/05/2018,5003,,
Sector Barahona,01/05/2018,4106,,
Sector Neyba,01/05/2018,1184,,
Distrito Sur,01/06/2018,131952,,
Distrito Norte,01/06/2018,86197,,
Sector Noroeste,01/06/2018,84464,,
Sector Villa Altagracia,01/06/2018,21260,,
Sector San Cristobal,01/06/2018,73632,,
Sector Bani,01/06/2018,8958,,
Sector Azua,01/06/2018,4661,,
Sector San Juan,01/06/2018,4996,,
Sector Barahona,01/06/2018,4038,,
Sector Neyba,01/06/2018,1217,,
Distrito Sur,01/07/2018,132647,,
Distrito Norte,01/07/2018,89496,,
Sector Noroeste,01/07/2018,87959,,
Sector Villa Altagracia,01/07/2018,23321,,
Sector San Cristobal,01/07/2018,75612,,
Sector Bani,01/07/2018,8836,,
Sector Azua,01/07/2018,4563,,
Sector San Juan,01/07/2018,4989,,
Sector Barahona,01/07/2018,3980,,
Sector Neyba,01/07/2018,1209,,
Distrito Sur,01/08/2018,134097,,
Distrito Norte,01/08/2018,90795,,
Sector Noroeste,01/08/2018,91038,,
Sector Villa Altagracia,01/08/2018,25662,,
Sector San Cristobal,01/08/2018,77273,,
Sector Bani,01/08/2018,8804,,
Sector Azua,01/08/2018,4516,,
Sector San Juan,01/08/2018,5235,,
Sector Barahona,01/08/2018,3923,,
Sector Neyba,01/08/2018,1177,,
Distrito Sur,01/09/2018,135988,,
Distrito Norte,01/09/2018,91907,,
Sector Noroeste,01/09/2018,93939,,
Sector Villa Altagracia,01/09/2018,28080,,
Sector San Cristobal,01/09/2018,77656,,
Sector Bani,01/09/2018,8847,,
Sector Azua,01/09/2018,4494,,
Sector San Juan,01/09/2018,5683,,
Sector Barahona,01/09/2018,3858,,
Sector Neyba,01/09/2018,1179,,
Distrito Sur,01/10/2018,141926,,
Distrito Norte,01/10/2018,105040,,
Sector Noroeste,01/10/2018,113985,,
Sector Villa Altagracia,01/10/2018,34397,,
Sector San Cristobal,01/10/2018,82523,,
Sector Bani,01/10/2018,9121,,
Sector Azua,01/10/2018,4595,,
Sector San Juan,01/10/2018,6365,,
Sector Barahona,01/10/2018,4180,,
Sector Neyba,01/10/2018,1323,,
Distrito Sur,01/11/2018,142438,,
Distrito Norte,01/11/2018,104786,,
Sector Noroeste,01/11/2018,115545,,
Sector Villa Altagracia,01/11/2018,35303,,
Sector San Cristobal,01/11/2018,81763,,
Sector Bani,01/11/2018,9205,,
Sector Azua,01/11/2018,4737,,
Sector San Juan,01/11/2018,6450,,
Sector Barahona,01/11/2018,4408,,
Sector Neyba,01/11/2018,1438,,
